
{
	"allowSleep" : true,
	"autoClearForces" : true,
	"body" : 
	[
		
		{
			"angle" : 0,
			"angularVelocity" : 0,
			"awake" : true,
			"fixture" : 
			[
				
				{
					"density" : 1,
					"filter-categoryBits" : 2,
					"filter-maskBits" : 65533,
					"friction" : 0.2,
					"name" : "fixture5",
					"polygon" : 
					{
						"vertices" : 
						{
							"x" : 
							[
								0.1848269999027252,
								-3.037229180335999e-005,
								-0.1907905936241150,
								-0.1222442984580994,
								-0.06434965133666992,
								0.07434220612049103,
								0.1557522565126419
							],
							"y" : 
							[
								0.1868344843387604,
								0.2759542465209961,
								0.1937648653984070,
								-0.1337327361106873,
								-0.2633007168769836,
								-0.2667407095432282,
								-0.1184147894382477
							]
						}
					}
				}
			],
			"linearVelocity" : 0,
			"massData-I" : 0.004026130773127079,
			"massData-center" : 
			{
				"x" : 0.005439110565930605,
				"y" : 0.01496535446494818
			},
			"massData-mass" : 0.1484517157077789,
			"name" : "f_upperLeg",
			"position" : 
			{
				"x" : -0.4482899904251099,
				"y" : -0.2047320008277893
			},
			"type" : 2
		},
		
		{
			"angle" : 0,
			"angularVelocity" : 0,
			"awake" : true,
			"fixture" : 
			[
				
				{
					"density" : 1,
					"filter-categoryBits" : 2,
					"filter-maskBits" : 65533,
					"friction" : 0.2,
					"name" : "fixture4",
					"polygon" : 
					{
						"vertices" : 
						{
							"x" : 
							[
								0.1371554434299469,
								0.04382073879241943,
								-0.05893544480204582,
								-0.1318722963333130,
								0.03190368413925171
							],
							"y" : 
							[
								-0.1794202029705048,
								0.2357732057571411,
								0.2890843152999878,
								0.2252070307731628,
								-0.1987915635108948
							]
						}
					}
				},
				
				{
					"density" : 1,
					"filter-categoryBits" : 2,
					"filter-maskBits" : 65533,
					"friction" : 0.2,
					"name" : "fixture4",
					"polygon" : 
					{
						"vertices" : 
						{
							"x" : 
							[
								0.1371554434299469,
								0.03190368413925171,
								0.02942012250423431,
								0.06073211133480072
							],
							"y" : 
							[
								-0.1794202029705048,
								-0.1987915635108948,
								-0.2699276804924011,
								-0.2801545262336731
							]
						}
					}
				}
			],
			"linearVelocity" : 0,
			"massData-I" : 0.001833425369113684,
			"massData-center" : 
			{
				"x" : 0.01449507754296064,
				"y" : 0.03169447556138039
			},
			"massData-mass" : 0.07177945971488953,
			"name" : "b_lowerArm",
			"position" : 
			{
				"x" : -0.5170740485191345,
				"y" : 0.1559906601905823
			},
			"type" : 2
		},
		
		{
			"angle" : 0,
			"angularVelocity" : 0,
			"awake" : true,
			"fixture" : 
			[
				
				{
					"density" : 1,
					"filter-categoryBits" : 2,
					"filter-maskBits" : 65533,
					"friction" : 0.2,
					"name" : "fixture3",
					"polygon" : 
					{
						"vertices" : 
						{
							"x" : 
							[
								0.1223441362380981,
								-0.09240657091140747,
								-0.1100168824195862,
								0.06246903911232948
							],
							"y" : 
							[
								0.1751750707626343,
								0.1786971688270569,
								-0.1663699150085449,
								-0.1769360899925232
							]
						}
					}
				}
			],
			"linearVelocity" : 0,
			"massData-I" : 0.0009126169607043266,
			"massData-center" : 
			{
				"x" : -0.003318033646792173,
				"y" : 0.008825745433568955
			},
			"massData-mass" : 0.06776614487171173,
			"name" : "f_upperArm",
			"position" : 
			{
				"x" : -0.5472509264945984,
				"y" : 0.5492807030677795
			},
			"type" : 2
		},
		
		{
			"angle" : 0,
			"angularVelocity" : 0,
			"awake" : true,
			"fixture" : 
			[
				
				{
					"circle" : 
					{
						"center" : 0,
						"radius" : 0.1633377969264984
					},
					"density" : 1,
					"filter-categoryBits" : 2,
					"filter-maskBits" : 65533,
					"friction" : 0.2,
					"name" : "fixture2"
				}
			],
			"linearVelocity" : 0,
			"massData-I" : 0.001118064043112099,
			"massData-mass" : 0.08381529152393341,
			"name" : "head",
			"position" : 
			{
				"x" : -0.4771194159984589,
				"y" : 0.9745318889617920
			},
			"type" : 2
		},
		
		{
			"angle" : 0,
			"angularVelocity" : 0,
			"awake" : true,
			"fixture" : 
			[
				
				{
					"circle" : 
					{
						"center" : 
						{
							"x" : -0.02710729092359543,
							"y" : -0.1707344353199005
						},
						"radius" : 0.3353032767772675
					},
					"density" : 1,
					"filter-categoryBits" : 2,
					"filter-maskBits" : 65533,
					"friction" : 0.2,
					"name" : "fixture1"
				},
				
				{
					"density" : 1,
					"filter-categoryBits" : 2,
					"filter-maskBits" : 65533,
					"friction" : 0.2,
					"name" : "fixture0",
					"polygon" : 
					{
						"vertices" : 
						{
							"x" : 
							[
								0.2633318305015564,
								-0.02558779716491699,
								-0.2479637265205383,
								-0.3309513330459595
							],
							"y" : 
							[
								0.01636695861816406,
								0.4600430727005005,
								0.4784846901893616,
								-0.01744279265403748
							]
						}
					}
				}
			],
			"linearVelocity" : 0,
			"massData-I" : 0.04588158428668976,
			"massData-center" : 
			{
				"x" : -0.04596185684204102,
				"y" : -0.04071374982595444
			},
			"massData-mass" : 0.5458290576934815,
			"name" : "torso",
			"position" : 
			{
				"x" : -0.4026429951190949,
				"y" : 0.3813380002975464
			},
			"type" : 2
		},
		
		{
			"angle" : 0,
			"angularVelocity" : 0,
			"awake" : true,
			"fixture" : 
			[
				
				{
					"density" : 1,
					"filter-categoryBits" : 2,
					"filter-maskBits" : 65533,
					"friction" : 0.2,
					"name" : "fixture5",
					"polygon" : 
					{
						"vertices" : 
						{
							"x" : 
							[
								0.1848269999027252,
								-3.037229180335999e-005,
								-0.1907905936241150,
								-0.1222442984580994,
								-0.06434965133666992,
								0.07434220612049103,
								0.1557522565126419
							],
							"y" : 
							[
								0.1868344843387604,
								0.2759542465209961,
								0.1937648653984070,
								-0.1337327361106873,
								-0.2633007168769836,
								-0.2667407095432282,
								-0.1184147894382477
							]
						}
					}
				}
			],
			"linearVelocity" : 0,
			"massData-I" : 0.004026130773127079,
			"massData-center" : 
			{
				"x" : 0.005439110565930605,
				"y" : 0.01496535446494818
			},
			"massData-mass" : 0.1484517157077789,
			"name" : "b_upperLeg",
			"position" : 
			{
				"x" : -0.4482899904251099,
				"y" : -0.2047320008277893
			},
			"type" : 2
		},
		
		{
			"angle" : 0,
			"angularVelocity" : 0,
			"awake" : true,
			"fixture" : 
			[
				
				{
					"density" : 1,
					"filter-categoryBits" : 2,
					"filter-maskBits" : 65533,
					"friction" : 0.2,
					"name" : "fixture3",
					"polygon" : 
					{
						"vertices" : 
						{
							"x" : 
							[
								0.1223441362380981,
								-0.09240657091140747,
								-0.1100168824195862,
								0.06246903911232948
							],
							"y" : 
							[
								0.1751750707626343,
								0.1786971688270569,
								-0.1663699150085449,
								-0.1769360899925232
							]
						}
					}
				}
			],
			"linearVelocity" : 0,
			"massData-I" : 0.0009126169607043266,
			"massData-center" : 
			{
				"x" : -0.003318033646792173,
				"y" : 0.008825745433568955
			},
			"massData-mass" : 0.06776614487171173,
			"name" : "b_upperArm",
			"position" : 
			{
				"x" : -0.5472509860992432,
				"y" : 0.5492810010910034
			},
			"type" : 2
		},
		
		{
			"angle" : 0,
			"angularVelocity" : 0,
			"awake" : true,
			"fixture" : 
			[
				
				{
					"density" : 1,
					"filter-categoryBits" : 2,
					"filter-maskBits" : 65533,
					"friction" : 0.2,
					"name" : "fixture4",
					"polygon" : 
					{
						"vertices" : 
						{
							"x" : 
							[
								0.1371554434299469,
								0.04382073879241943,
								-0.05893544480204582,
								-0.1318722963333130,
								0.03190368413925171
							],
							"y" : 
							[
								-0.1794202029705048,
								0.2357732057571411,
								0.2890843152999878,
								0.2252070307731628,
								-0.1987915635108948
							]
						}
					}
				},
				
				{
					"density" : 1,
					"filter-categoryBits" : 2,
					"filter-maskBits" : 65533,
					"friction" : 0.2,
					"name" : "fixture4",
					"polygon" : 
					{
						"vertices" : 
						{
							"x" : 
							[
								0.1371554434299469,
								0.03190368413925171,
								0.02942012250423431,
								0.06073211133480072
							],
							"y" : 
							[
								-0.1794202029705048,
								-0.1987915635108948,
								-0.2699276804924011,
								-0.2801545262336731
							]
						}
					}
				}
			],
			"linearVelocity" : 0,
			"massData-I" : 0.001833425369113684,
			"massData-center" : 
			{
				"x" : 0.01449507754296064,
				"y" : 0.03169447556138039
			},
			"massData-mass" : 0.07177945971488953,
			"name" : "f_lowerArm",
			"position" : 
			{
				"x" : -0.5170739889144898,
				"y" : 0.1559910029172897
			},
			"type" : 2
		},
		
		{
			"angle" : 0,
			"angularVelocity" : 0,
			"awake" : true,
			"fixture" : 
			[
				
				{
					"density" : 1,
					"filter-categoryBits" : 2,
					"filter-maskBits" : 65533,
					"friction" : 0.2,
					"name" : "fixture6",
					"polygon" : 
					{
						"vertices" : 
						{
							"x" : 
							[
								0.1790229827165604,
								0.1668579578399658,
								-0.04812584817409515,
								-0.1730533540248871,
								-0.1662510335445404
							],
							"y" : 
							[
								-0.2692620754241943,
								-0.2105491757392883,
								-0.09011107683181763,
								-0.08848482370376587,
								-0.2777586579322815
							]
						}
					}
				},
				
				{
					"density" : 1,
					"filter-categoryBits" : 2,
					"filter-maskBits" : 65533,
					"friction" : 0.2,
					"name" : "fixture6",
					"polygon" : 
					{
						"vertices" : 
						{
							"x" : 
							[
								0.03319002687931061,
								-0.160042792558670,
								-0.1730533540248871,
								-0.04812584817409515
							],
							"y" : 
							[
								0.2543692290782929,
								0.2592481672763825,
								-0.08848482370376587,
								-0.09011107683181763
							]
						}
					}
				}
			],
			"linearVelocity" : 0,
			"massData-I" : 0.004037033766508102,
			"massData-center" : 
			{
				"x" : -0.05801446735858917,
				"y" : -0.04134025052189827
			},
			"massData-mass" : 0.1045010089874268,
			"name" : "b_lowerLeg",
			"position" : 
			{
				"x" : -0.3724580109119415,
				"y" : -0.6582210063934326
			},
			"type" : 2
		},
		
		{
			"angle" : 0,
			"angularVelocity" : 0,
			"awake" : true,
			"fixture" : 
			[
				
				{
					"chain" : 
					{
						"vertices" : 
						{
							"x" : [ -2.696458816528320, 2.017490386962891 ],
							"y" : [ 0.0, 0.0 ]
						}
					},
					"density" : 1,
					"friction" : 0.2,
					"name" : "fixture7"
				}
			],
			"linearVelocity" : 0,
			"name" : "floor",
			"position" : 
			{
				"x" : -0.3889191150665283,
				"y" : -1.373863458633423
			},
			"type" : 0
		},
		
		{
			"angle" : 0,
			"angularVelocity" : 0,
			"awake" : true,
			"fixture" : 
			[
				
				{
					"density" : 1,
					"filter-categoryBits" : 2,
					"filter-maskBits" : 65533,
					"friction" : 0.2,
					"name" : "fixture6",
					"polygon" : 
					{
						"vertices" : 
						{
							"x" : 
							[
								0.1790229827165604,
								0.1668579578399658,
								-0.04812584817409515,
								-0.1730533540248871,
								-0.1662510335445404
							],
							"y" : 
							[
								-0.2692620754241943,
								-0.2105491757392883,
								-0.09011107683181763,
								-0.08848482370376587,
								-0.2777586579322815
							]
						}
					}
				},
				
				{
					"density" : 1,
					"filter-categoryBits" : 2,
					"filter-maskBits" : 65533,
					"friction" : 0.2,
					"name" : "fixture6",
					"polygon" : 
					{
						"vertices" : 
						{
							"x" : 
							[
								0.03319002687931061,
								-0.160042792558670,
								-0.1730533540248871,
								-0.04812584817409515
							],
							"y" : 
							[
								0.2543692290782929,
								0.2592481672763825,
								-0.08848482370376587,
								-0.09011107683181763
							]
						}
					}
				}
			],
			"linearVelocity" : 0,
			"massData-I" : 0.004037033766508102,
			"massData-center" : 
			{
				"x" : -0.05801446735858917,
				"y" : -0.04134025052189827
			},
			"massData-mass" : 0.1045010089874268,
			"name" : "f_lowerLeg",
			"position" : 
			{
				"x" : -0.3724580109119415,
				"y" : -0.6582210063934326
			},
			"type" : 2
		}
	],
	"collisionbitplanes" : 
	{
		"names" : 
		[
			"bitplane1",
			"bitplane2",
			"bitplane3",
			"bitplane4",
			"bitplane5",
			"bitplane6",
			"bitplane7",
			"bitplane8",
			"bitplane9",
			"bitplane10",
			"bitplane11",
			"bitplane12",
			"bitplane13",
			"bitplane14",
			"bitplane15",
			"bitplane16",
			"bitplane17",
			"bitplane18",
			"bitplane19",
			"bitplane20",
			"bitplane21",
			"bitplane22",
			"bitplane23",
			"bitplane24",
			"bitplane25",
			"bitplane26",
			"bitplane27",
			"bitplane28",
			"bitplane29",
			"bitplane30",
			"bitplane31",
			"bitplane32"
		]
	},
	"continuousPhysics" : true,
	"gravity" : 
	{
		"x" : 0,
		"y" : -10
	},
	"image" : 
	[
		
		{
			"aspectScale" : 1,
			"body" : 6,
			"center" : 0,
			"corners" : 
			{
				"x" : 
				[
					-0.1250735223293304,
					0.1250735223293304,
					0.1250735223293304,
					-0.1250735223293304
				],
				"y" : 
				[
					-0.1889999955892563,
					-0.1889999955892563,
					0.1889999955892563,
					0.1889999955892563
				]
			},
			"file" : "sd_upperArm.png",
			"filter" : 1,
			"glDrawElements" : [ 0, 1, 2, 2, 3, 0 ],
			"glTexCoordPointer" : [ 0.0, 0.0, 1, 0.0, 1, 1, 0.0, 1 ],
			"glVertexPointer" : 
			[
				-0.1250735223293304,
				-0.1889999955892563,
				0.1250735223293304,
				-0.1889999955892563,
				0.1250735223293304,
				0.1889999955892563,
				-0.1250735223293304,
				0.1889999955892563
			],
			"name" : "b_upperArm",
			"opacity" : 1,
			"renderOrder" : -5,
			"scale" : 0.3779999911785126
		},
		
		{
			"aspectScale" : 1,
			"body" : 7,
			"center" : 0,
			"corners" : 
			{
				"x" : 
				[
					-0.1264632195234299,
					0.1264632195234299,
					0.1264632195234299,
					-0.1264632195234299
				],
				"y" : 
				[
					-0.2834999859333038,
					-0.2834999859333038,
					0.2834999859333038,
					0.2834999859333038
				]
			},
			"file" : "sd_lowerArm.png",
			"filter" : 1,
			"glDrawElements" : [ 0, 1, 2, 2, 3, 0 ],
			"glTexCoordPointer" : [ 0.0, 0.0, 1, 0.0, 1, 1, 0.0, 1 ],
			"glVertexPointer" : 
			[
				-0.1264632195234299,
				-0.2834999859333038,
				0.1264632195234299,
				-0.2834999859333038,
				0.1264632195234299,
				0.2834999859333038,
				-0.1264632195234299,
				0.2834999859333038
			],
			"name" : "b_lowerArm",
			"opacity" : 1,
			"renderOrder" : -4,
			"scale" : 0.5669999718666077
		},
		
		{
			"aspectScale" : 1,
			"body" : 8,
			"center" : 0,
			"corners" : 
			{
				"x" : 
				[
					-0.1805197894573212,
					0.1805197894573212,
					0.1805197894573212,
					-0.1805197894573212
				],
				"y" : 
				[
					-0.2804999947547913,
					-0.2804999947547913,
					0.2804999947547913,
					0.2804999947547913
				]
			},
			"file" : "sd_lowerLeg.png",
			"filter" : 1,
			"glDrawElements" : [ 0, 1, 2, 2, 3, 0 ],
			"glTexCoordPointer" : [ 0.0, 0.0, 1, 0.0, 1, 1, 0.0, 1 ],
			"glVertexPointer" : 
			[
				-0.1805197894573212,
				-0.2804999947547913,
				0.1805197894573212,
				-0.2804999947547913,
				0.1805197894573212,
				0.2804999947547913,
				-0.1805197894573212,
				0.2804999947547913
			],
			"name" : "b_lowerLeg",
			"opacity" : 1,
			"renderOrder" : -3,
			"scale" : 0.5609999895095825
		},
		
		{
			"aspectScale" : 1,
			"body" : 5,
			"center" : 0,
			"corners" : 
			{
				"x" : 
				[
					-0.1846074908971787,
					0.1846074908971787,
					0.1846074908971787,
					-0.1846074908971787
				],
				"y" : 
				[
					-0.2694999873638153,
					-0.2694999873638153,
					0.2694999873638153,
					0.2694999873638153
				]
			},
			"file" : "sd_upperLeg.png",
			"filter" : 1,
			"glDrawElements" : [ 0, 1, 2, 2, 3, 0 ],
			"glTexCoordPointer" : [ 0.0, 0.0, 1, 0.0, 1, 1, 0.0, 1 ],
			"glVertexPointer" : 
			[
				-0.1846074908971787,
				-0.2694999873638153,
				0.1846074908971787,
				-0.2694999873638153,
				0.1846074908971787,
				0.2694999873638153,
				-0.1846074908971787,
				0.2694999873638153
			],
			"name" : "b_upperLeg",
			"opacity" : 1,
			"renderOrder" : -2,
			"scale" : 0.5389999747276306
		},
		
		{
			"aspectScale" : 1,
			"body" : 3,
			"center" : 
			{
				"x" : -0.01042771339416504,
				"y" : -0.002087771892547607
			},
			"corners" : 
			{
				"x" : 
				[
					-0.1614446640014648,
					0.1405892372131348,
					0.1405892372131348,
					-0.1614446640014648
				],
				"y" : 
				[
					-0.1670877784490585,
					-0.1670877784490585,
					0.1629122346639633,
					0.1629122346639633
				]
			},
			"file" : "sd_head.png",
			"filter" : 1,
			"glDrawElements" : [ 0, 1, 2, 2, 3, 0 ],
			"glTexCoordPointer" : [ 0.0, 0.0, 1, 0.0, 1, 1, 0.0, 1 ],
			"glVertexPointer" : 
			[
				-0.1614446640014648,
				-0.1670877784490585,
				0.1405892372131348,
				-0.1670877784490585,
				0.1405892372131348,
				0.1629122346639633,
				-0.1614446640014648,
				0.1629122346639633
			],
			"name" : "head",
			"opacity" : 1,
			"scale" : 0.33
		},
		
		{
			"aspectScale" : 1,
			"body" : 4,
			"center" : 
			{
				"x" : -0.01333410013467073,
				"y" : 0.0005875829956494272
			},
			"corners" : 
			{
				"x" : [ -0.3466674387454987, 0.32, 0.32, -0.3466674387454987 ],
				"y" : 
				[
					-0.4994124174118042,
					-0.4994124174118042,
					0.5005875825881958,
					0.5005875825881958
				]
			},
			"file" : "sd_torso.png",
			"filter" : 1,
			"glDrawElements" : [ 0, 1, 2, 2, 3, 0 ],
			"glTexCoordPointer" : [ 0.0, 0.0, 1, 0.0, 1, 1, 0.0, 1 ],
			"glVertexPointer" : 
			[
				-0.3466674387454987,
				-0.4994124174118042,
				0.32,
				-0.4994124174118042,
				0.32,
				0.5005875825881958,
				-0.3466674387454987,
				0.5005875825881958
			],
			"name" : "torso",
			"opacity" : 1,
			"renderOrder" : 1,
			"scale" : 1
		},
		
		{
			"aspectScale" : 1,
			"body" : 0,
			"center" : 0,
			"corners" : 
			{
				"x" : 
				[
					-0.1846074908971787,
					0.1846074908971787,
					0.1846074908971787,
					-0.1846074908971787
				],
				"y" : 
				[
					-0.2694999873638153,
					-0.2694999873638153,
					0.2694999873638153,
					0.2694999873638153
				]
			},
			"file" : "sd_upperLeg.png",
			"filter" : 1,
			"glDrawElements" : [ 0, 1, 2, 2, 3, 0 ],
			"glTexCoordPointer" : [ 0.0, 0.0, 1, 0.0, 1, 1, 0.0, 1 ],
			"glVertexPointer" : 
			[
				-0.1846074908971787,
				-0.2694999873638153,
				0.1846074908971787,
				-0.2694999873638153,
				0.1846074908971787,
				0.2694999873638153,
				-0.1846074908971787,
				0.2694999873638153
			],
			"name" : "f_upperLeg",
			"opacity" : 1,
			"renderOrder" : 2,
			"scale" : 0.5389999747276306
		},
		
		{
			"aspectScale" : 1,
			"body" : 10,
			"center" : 0,
			"corners" : 
			{
				"x" : 
				[
					-0.1805197894573212,
					0.1805197894573212,
					0.1805197894573212,
					-0.1805197894573212
				],
				"y" : 
				[
					-0.2804999947547913,
					-0.2804999947547913,
					0.2804999947547913,
					0.2804999947547913
				]
			},
			"file" : "sd_lowerLeg.png",
			"filter" : 1,
			"glDrawElements" : [ 0, 1, 2, 2, 3, 0 ],
			"glTexCoordPointer" : [ 0.0, 0.0, 1, 0.0, 1, 1, 0.0, 1 ],
			"glVertexPointer" : 
			[
				-0.1805197894573212,
				-0.2804999947547913,
				0.1805197894573212,
				-0.2804999947547913,
				0.1805197894573212,
				0.2804999947547913,
				-0.1805197894573212,
				0.2804999947547913
			],
			"name" : "f_lowerLeg",
			"opacity" : 1,
			"renderOrder" : 3,
			"scale" : 0.5609999895095825
		},
		
		{
			"aspectScale" : 1,
			"body" : 2,
			"center" : 0,
			"corners" : 
			{
				"x" : 
				[
					-0.1250735223293304,
					0.1250735223293304,
					0.1250735223293304,
					-0.1250735223293304
				],
				"y" : 
				[
					-0.1889999955892563,
					-0.1889999955892563,
					0.1889999955892563,
					0.1889999955892563
				]
			},
			"file" : "sd_upperArm.png",
			"filter" : 1,
			"glDrawElements" : [ 0, 1, 2, 2, 3, 0 ],
			"glTexCoordPointer" : [ 0.0, 0.0, 1, 0.0, 1, 1, 0.0, 1 ],
			"glVertexPointer" : 
			[
				-0.1250735223293304,
				-0.1889999955892563,
				0.1250735223293304,
				-0.1889999955892563,
				0.1250735223293304,
				0.1889999955892563,
				-0.1250735223293304,
				0.1889999955892563
			],
			"name" : "f_upperArm",
			"opacity" : 1,
			"renderOrder" : 4,
			"scale" : 0.3779999911785126
		},
		
		{
			"aspectScale" : 1,
			"body" : 1,
			"center" : 0,
			"corners" : 
			{
				"x" : 
				[
					-0.1264632195234299,
					0.1264632195234299,
					0.1264632195234299,
					-0.1264632195234299
				],
				"y" : 
				[
					-0.2834999859333038,
					-0.2834999859333038,
					0.2834999859333038,
					0.2834999859333038
				]
			},
			"file" : "sd_lowerArm.png",
			"filter" : 1,
			"glDrawElements" : [ 0, 1, 2, 2, 3, 0 ],
			"glTexCoordPointer" : [ 0.0, 0.0, 1, 0.0, 1, 1, 0.0, 1 ],
			"glVertexPointer" : 
			[
				-0.1264632195234299,
				-0.2834999859333038,
				0.1264632195234299,
				-0.2834999859333038,
				0.1264632195234299,
				0.2834999859333038,
				-0.1264632195234299,
				0.2834999859333038
			],
			"name" : "f_lowerArm",
			"opacity" : 1,
			"renderOrder" : 5,
			"scale" : 0.5669999718666077
		}
	],
	"joint" : 
	[
		
		{
			"anchorA" : 
			{
				"x" : 0.004567831754684448,
				"y" : -0.2271620035171509
			},
			"anchorB" : 
			{
				"x" : -0.07126411795616150,
				"y" : 0.2263270020484924
			},
			"bodyA" : 5,
			"bodyB" : 8,
			"enableLimit" : true,
			"enableMotor" : false,
			"jointSpeed" : 0,
			"lowerLimit" : -2.268928050994873,
			"maxMotorTorque" : 0,
			"motorSpeed" : 0,
			"name" : "b_uLegLleg",
			"refAngle" : 0,
			"type" : "revolute",
			"upperLimit" : 0
		},
		
		{
			"anchorA" : 
			{
				"x" : -0.01380270719528198,
				"y" : -0.1466169953346252
			},
			"anchorB" : 
			{
				"x" : -0.04397958517074585,
				"y" : 0.2466730028390884
			},
			"bodyA" : 6,
			"bodyB" : 7,
			"enableLimit" : true,
			"enableMotor" : false,
			"jointSpeed" : 0,
			"lowerLimit" : 0,
			"maxMotorTorque" : 0,
			"motorSpeed" : 0,
			"name" : "b_uArmLleg",
			"refAngle" : 0,
			"type" : "revolute",
			"upperLimit" : 1.221730470657349
		},
		
		{
			"anchorA" : 
			{
				"x" : -0.1381889879703522,
				"y" : 0.2425720095634460
			},
			"anchorB" : 
			{
				"x" : 0.006419420242309570,
				"y" : 0.07462882995605469
			},
			"bodyA" : 4,
			"bodyB" : 6,
			"enableLimit" : true,
			"enableMotor" : false,
			"jointSpeed" : 0,
			"lowerLimit" : -0.6981316804885864,
			"maxMotorTorque" : 0,
			"motorSpeed" : 0,
			"name" : "f_torsoUleg",
			"refAngle" : 0,
			"type" : "revolute",
			"upperLimit" : 3.316125631332398
		},
		
		{
			"anchorA" : 
			{
				"x" : -0.04527708888053894,
				"y" : -0.4459080100059509
			},
			"anchorB" : 
			{
				"x" : 0.0003697276115417481,
				"y" : 0.1401620060205460
			},
			"bodyA" : 4,
			"bodyB" : 5,
			"enableLimit" : true,
			"enableMotor" : false,
			"jointSpeed" : 0,
			"lowerLimit" : -0.5235987901687622,
			"maxMotorTorque" : 0,
			"motorSpeed" : 0,
			"name" : "b_torsoUleg",
			"refAngle" : 0,
			"type" : "revolute",
			"upperLimit" : 2.094395160675049
		},
		
		{
			"anchorA" : 
			{
				"x" : -0.01380270719528198,
				"y" : -0.1466169953346252
			},
			"anchorB" : 
			{
				"x" : -0.04397958517074585,
				"y" : 0.2466729879379273
			},
			"bodyA" : 2,
			"bodyB" : 1,
			"enableLimit" : true,
			"enableMotor" : false,
			"jointSpeed" : 0,
			"lowerLimit" : 0,
			"maxMotorTorque" : 0,
			"motorSpeed" : 0,
			"name" : "f_uArmLleg",
			"refAngle" : 0,
			"type" : "revolute",
			"upperLimit" : 1.221730470657349
		},
		
		{
			"anchorA" : 
			{
				"x" : -0.1381889879703522,
				"y" : 0.2425720095634460
			},
			"anchorB" : 
			{
				"x" : 0.006419420242309570,
				"y" : 0.07462877035140991
			},
			"bodyA" : 4,
			"bodyB" : 2,
			"enableLimit" : true,
			"enableMotor" : false,
			"jointSpeed" : 0,
			"lowerLimit" : -0.6981316804885864,
			"maxMotorTorque" : 0,
			"motorSpeed" : 0,
			"name" : "f_torsoUleg",
			"refAngle" : 0,
			"type" : "revolute",
			"upperLimit" : 3.316125631332398
		},
		
		{
			"anchorA" : 
			{
				"x" : 0.004567831754684448,
				"y" : -0.2271620035171509
			},
			"anchorB" : 
			{
				"x" : -0.07126411795616150,
				"y" : 0.2263270020484924
			},
			"bodyA" : 0,
			"bodyB" : 10,
			"enableLimit" : true,
			"enableMotor" : false,
			"jointSpeed" : 0,
			"lowerLimit" : -2.268928050994873,
			"maxMotorTorque" : 0,
			"motorSpeed" : 0,
			"name" : "f_uLegLleg",
			"refAngle" : 0,
			"type" : "revolute",
			"upperLimit" : 0
		},
		
		{
			"anchorA" : 
			{
				"x" : -0.04527708888053894,
				"y" : -0.4459080100059509
			},
			"anchorB" : 
			{
				"x" : 0.0003697276115417481,
				"y" : 0.1401620060205460
			},
			"bodyA" : 4,
			"bodyB" : 0,
			"enableLimit" : true,
			"enableMotor" : false,
			"jointSpeed" : 0,
			"lowerLimit" : -0.5235987901687622,
			"maxMotorTorque" : 0,
			"motorSpeed" : 0,
			"name" : "b_torsoUleg",
			"refAngle" : 0,
			"type" : "revolute",
			"upperLimit" : 2.094395160675049
		},
		
		{
			"anchorA" : 
			{
				"x" : -0.1053650081157684,
				"y" : 0.4352859854698181
			},
			"anchorB" : 
			{
				"x" : -0.03088888525962830,
				"y" : -0.1579079627990723
			},
			"bodyA" : 4,
			"bodyB" : 3,
			"enableLimit" : true,
			"enableMotor" : false,
			"jointSpeed" : 0,
			"lowerLimit" : -0.3490658402442932,
			"maxMotorTorque" : 0,
			"motorSpeed" : 0,
			"name" : "torsoHead",
			"refAngle" : 0,
			"type" : "revolute",
			"upperLimit" : 0.5235987901687622
		}
	],
	"positionIterations" : 3,
	"stepsPerSecond" : 60.0,
	"subStepping" : false,
	"velocityIterations" : 8,
	"warmStarting" : true
}
